<?xml version="1.0" encoding="utf-8"?>
<!-- Generator: Adobe Illustrator 23.1.0, SVG Export Plug-In . SVG Version: 6.00 Build 0)  -->
<svg version="1.1" id="圖層_1" xmlns="http://www.w3.org/2000/svg" xmlns:xlink="http://www.w3.org/1999/xlink" x="0px" y="0px"
	 viewBox="0 0 20 20" style="enable-background:new 0 0 20 20;" xml:space="preserve">
<style type="text/css">
	.st0{fill:#FFFFFF;}
</style>
<path class="st0" d="M3.91,8.02l10.82-3.68c0.19-0.07,0.38,0.11,0.33,0.3l-2.66,10.95c-0.06,0.25-0.41,0.27-0.49,0.03l-1.98-5.51
	l-6.01-1.6C3.68,8.44,3.67,8.1,3.91,8.02z"/>
</svg>
